﻿CLASSIFICAÇÃO;   Categoria   ;jan-19;fev-18
1;  Receitas Operacionais  ; 870.031,44 ; 926.432,44 
1.2;  Receita de Vendas  ; 870.031,44 ; 870.031,44 
1.3;  Receita de Fretes e Entregas  ; -   ; 546,00 
1.4;  Outras Receitas 1  ; -   ; 44.444,00 
1.5;  Outras Receitas 2  ; -   ; 11.411,00 
2;  Deduções da Receita Bruta  ; 174.662,94 ; 960.521,94 
2.1;  Impostos Sobre Vendas  ; 135.441,52 ; 135.441,52 
2.2;  Comissões Sobre Vendas  ; 10.048,30 ; 10.048,30 
2.3;  Descontos Incondicionais  ; -   ; 67,00 
2.4;  Devoluções de Vendas  ; 29.173,12 ; 29.173,12 
2.5;  Outras Deduções 1  ; -   ; 785.785,00 
2.6;  Outras Deduções 2  ; -   ; 7,00 
;  Receita LÌquida de Vendas  ; 695.368,50 ;-34.089,50 
3;  Custos Operacionais  ; 526.777,20 ; 1.398.994,20 
3.1;  Custo das Mercadorias Vendidas  ; 526.777,20 ; 526.777,20 
3.2;  Custo dos Produtos Vendidos  ; -   ; 7.857,00 
3.3;  Custo dos Serviços Prestados  ; -   ; 785.785,00 
3.4;  Outros Custos  ; -   ; 78.575,00 
;  Lucro Bruto  ; 168.591,30 ;-1.433.083,70 
4;  Despesas Operacionais  ; 141.322,35 ; 1.791.467,35 
4.1;  Despesas com Vendas  ; -   ; 785.785,00 
4.2;  Despesas Administrativas  ; -   ; 78.575,00 
4.3;  Despesas Tributárias Gerais  ; 62.596,81 ; 62.596,81 
4.4;  Outras  Despesas 1  ; 16.075,31 ; 16.075,31 
4.5;  Outras  Despesas 2  ; 12.764,30 ; 12.764,30 
4.6;  Outras Despesas 3  ; -   ; 785.785,00 
4.7;  Outras Despesas 4  ; 49.885,93 ; 49.885,93 
;  Lucro / PrejuÌzo Operacional  ; 27.268,95 ;-3.224.551,05 
5;  Receitas e Despesas Financeiras  ; -   ;-1.981,00 
5.1;  Receitas e Rendimentos Financeiros  ; -   ; 4.534,00 
5.2;  Despesas Financeiras  ; -   ; 45.434,00 
5.3;  Outras Receitas Financeiras  ; -   ; 43.453,00 
6;  Outras Despesas Financeiras  ; -   ; 4.534,00 
6.1;  Outras Receitas e Despesas Não Operacionais  ; -   ; -   
6.2;  Outras Receitas Não Operacionais  ; -   ; 453.453,00 
;  Outras Despesas Não Operacionais  ; -   ; 453.453,00 
7;  Lucro / PrejuÌzo LÌquido  ; 27.268,95 ;-3.222.570,05 
7.1;  Desembolso com Investimentos e Empréstimos  ; 35.096,67 ; 85.287,67 
7.2;  Investimentos em Imobilizado  ; -   ; 45.646,00 
7.3;  Empréstimos e Dívidas  ; 35.096,67 ; 35.096,67 
;  Outros Investimentos e Empréstimos  ; -   ; 4.545,00 
;  Lucro / PrejuÌzo Final  ;-7.827,72 ;-3.307.857,72 
