﻿jan-18;;;;;;;;;;;;;;
fev-18;;;;;;;;;;;;;;
mar-18;;;;;;;;;;;;;;
abr-18;;;;;;;;;;;;;;
mai-18;;;;;;;;;;;;;;
jun-18;;;;;;;;;;;;;;
jul-18;;;;;;;;;;;;;;
ago-18;;;;;;;;;;;;;;
set-18;;;;;;;;;;;;;;
out-18;;;;;;;;;;;;;;
nov-18;;;;;;;;;;;;;;
dez-18;;;;;;;;;;;;;;
jan/19;;;;;;;;;;;;;;
1;;;;;;;;;;;;;;
 Categoria ;jan/18;fev/18;mar/18;abr/18;mai/18;jun/18;jul/18;ago/18;set/18;out/18;nov/18;dez/18;jan/19;
Lucro/Prejuízo Operacional $;0;0;0;0;0;0;37480;14583,99;-10791,51;76365,44;0;0;0;
 Lucro/Prejuízo Operacional $ ; -   ; -   ; -   ; -   ; -   ; -   ; 37.480,00 ; 14.583,99 ;-10.791,51 ; 76.365,44 ; -   ; -   ; -   ;
 Lucro/Prejuízo Operacional % ;0,00%;0,00%;0,00%;0,00%;0,00%;0,00%;9,40%;4,28%;-2,61%;15,21%;0,00%;0,00%;0,00%;
 Lucro/Prejuízo Líquido $ ; -   ; -   ; -   ; -   ; -   ; -   ; 31.816,99 ; 3.648,19 ;-26.253,01 ; 65.887,28 ; -   ; -   ; -   ;
 Lucro/Prejuízo Líquido % ;0,00%;0,00%;0,00%;0,00%;0,00%;0,00%;7,98%;1,07%;-6,34%;13,13%;0,00%;0,00%;0,00%;
 Lucro/Prejuízo Final $ ; -   ; -   ; -   ; -   ; -   ; -   ; 18.454,69 ;-39.801,20 ;-39.785,02 ;-100,00 ; -   ; -   ; -   ;
 Lucro/Prejuízo Final % ;0,00%;0,00%;0,00%;0,00%;0,00%;0,00%;4,63%;-11,69%;-9,61%;-0,02%;0,00%;0,00%;0,00%;
;;;;;;;;;;;;;;
;;;;;;;;;;;;;;
;01/10/2018;;;;;;;;;;;;;
;Grafico Lucro Liquido Mensal;Grafico Lucro Liquido Acumulado;;;;;;;;;;;;
 Lucro/Prejuízo Líquido % ;13,13%;4,54%;;;;;;;;;;;;
Total 100%;100%;100%;;;;;;;;;;;;
;;;;;;;;;;;;;;
GRÁFICO PIZZA GASTOS;;;;;;;;;;;;;;
Deduções da Receita Bruta; 92.082,48 ;;;;;;;;;;;;;
Custos Operacionais; 224.778,35 ;;;;;;;;;;;;;
Despesas Operacionais; 108.724,86 ;;;;;;;;;;;;;
Despesas Financeiras; 14.083,93 ;;;;;;;;;;;;;
Outras Despesas Não Operacionais; 615,90 ;;;;;;;;;;;;;
Despesas com Investimentos e Empréstimos; 38.610,35 ;;;;;;;;;;;;;
;;;;;;;;;;;;;;
;;;;;;;;;;;;;;
GRÁFICO PIZZA DEDUÇÕES DA RECEITA;;;;;;;;;;;;;;
Impostos Sobre Vendas; 37.243,38 ;;;;;;;;;;;;;
Comissões Sobre Vendas; 2.415,12 ;;;;;;;;;;;;;
Descontos Incondicionais; -   ;;;;;;;;;;;;;
Devoluções de Vendas; 49.043,76 ;;;;;;;;;;;;;
Deduções 1; 3.380,22 ;;;;;;;;;;;;;
;;;;;;;;;;;;;;
;out/18;01/01/2018;01/02/2018;01/03/2018;01/04/2018;01/05/2018;01/06/2018;01/07/2018;01/08/2018;01/09/2018;01/10/2018;01/11/2018;01/12/2018;01/01/2018
Inserir o valor (30) no mês Inicial  ==>>>;;;;;;;;210;240;270;300;330;360;30
CICLOS;;jan/18;fev/18;mar/18;abr/18;mai/18;jun/18;jul/18;ago/18;set/18;out/18;nov/18;dez/18;jan/19
Clientes;;;;;;;; 2.247.119,60 ; 2.231.767,59 ; 2.063.961,69 ; 2.014.795,32 ;;;
Estoque;;;;;;;; 1.140.216,01 ; 1.111.863,57 ; 1.120.653,66 ; 1.105.884,72 ;;;
Fornecedor;;;;;;;; 1.040.707,43 ; 983.563,21 ; 929.330,83 ; 933.216,06 ;;;
Custo;; 208.191,89 ; 416.383,77 ; 624.575,66 ; 832.767,55 ; 1.040.959,43 ; 1.249.151,32 ; 1.457.343,21 ; 1.637.157,43 ; 1.857.140,52 ; 2.081.918,87 ;;;
Compras;; 196.748,12 ; 393.496,25 ; 590.244,37 ; 786.992,49 ; 983.740,62 ; 1.180.488,74 ; 1.377.236,86 ; 1.608.804,99 ; 1.865.930,61 ; 2.067.149,93 ;-1.105.884,72 ; -   ; -   
Receitas Acumulada Mensalmente;; 413.725,79 ; 827.451,57 ; 1.241.177,36 ; 1.654.903,14 ; 2.068.628,93 ; 2.482.354,71 ; 2.880.963,30 ; 3.221.426,05 ; 3.635.306,72 ; 4.137.257,85 ; 4.137.257,85 ; 4.137.257,85 ; 4.137.257,85 
;;;;;;;;;;;;;;
Prazo Médio de Pagamento (PMP);135,44;0;0;0;0;0;0;158,69;146,73;134,47;135,44;0;0;0
Prazo Médio de Estocagem (PME);159,36;0;0;0;0;0;0;164,30;162,99;162,93;159,36;0;0;0
Prazo Médio de Recebimento (PMR);146,10;0;0;0;0;0;0;163,80;166,27;153,29;146,10;0;0;0
Ciclo Financeiro;170,02;0;0;0;0;0;0;169,41;182,54;181,75;170,02;0;0;0
Ciclo Operacional;305,45;0;0;0;0;0;0;328,10;329,26;316,22;305,45;0;0;0
Média Vendas Diárias;13790,86; -   ; -   ; -   ; -   ; -   ; -   ; 13.718,87 ; 13.422,61 ; 13.464,10 ; 13.790,86 ; 12.537,15 ; 11.492,38 ; 137.908,60 
Necessidade de Capital de Giro;2344678,41; -   ; -   ; -   ; -   ; -   ; -   ; 2.324.170,31 ; 2.450.116,26 ; 2.447.041,08 ; 2.344.678,41 ; -   ; -   ; -   
Capital de Giro;;;;;;;;;;;1284074,69;;;
Saldo de Tesouraria;;;;;;;;;;;-1.060.603,72 ;;;
;;;;;;;;;;;;;;
;;;;;;;;;;;;;;
